<?xml version="1.0"?>
<robot name="five_wheeler" xmlns:xacro="http://ros.org/wiki/xacro">

    <xacro:property name="length" value="0.6" />
    <xacro:property name="width" value="0.4" />
    <xacro:property name="height" value="0.2" />
    <xacro:property name="wheeldiam" value="0.2" />
    <xacro:property name="pi" value="3.1415" />

    <material name="black">
        <color rgba="0 0 0 1"/>
    </material>

    <material name="white">
        <color rgba="1 1 1 1"/>
    </material>

    <material name="red">
        <color rgba="1 0 0 1"/>
    </material>

    <link name="base_link">
        <visual>
          <geometry>
            <box size="${length} ${width} ${height}"/>
          </geometry>
          <material name="white"/>
        </visual>
    </link>



    <link name="RBW">
        <visual>
            <origin xyz="0 0 0" rpy="${pi/2} 0 0" />
            <geometry>
              <cylinder radius="${wheeldiam/2}" length="0.02"/>
            </geometry>
            <material name="black"/>
          </visual>
    </link>

    <joint name="RBW_joint" type="continuous">
        <parent link="base_link" />
        <child link="RBW" />
        <origin rpy="0 0 0" xyz="-0.25 -${width/2+0.01} -0.07" />
    </joint>




    <link name="RFW">
        <visual>
            <origin xyz="0 0 0" rpy="${pi/2} 0 0" />
            <geometry>
              <cylinder radius="${wheeldiam/2}" length="0.02"/>
            </geometry>
            <material name="black"/>
          </visual>
    </link>

    <joint name="RFW_joint" type="continuous">
        <parent link="base_link" />
        <child link="RFW" />
        <origin rpy="0 0 0" xyz="0.25 -${width/2+0.01} -0.07" />
    </joint>




    <link name="LBW">
        <visual>
            <origin xyz="0 0 0" rpy="${pi/2} 0 0" />
            <geometry>
              <cylinder radius="${wheeldiam/2}" length="0.02"/>
            </geometry>
            <material name="black"/>
          </visual>
    </link>

    <joint name="LBW_joint" type="continuous">
        <parent link="base_link" />
        <child link="LBW" />
        <origin rpy="0 0 0" xyz="-0.25 ${width/2+0.01} -0.07" />
    </joint>




    <link name="LFW">
        <visual>
            <origin xyz="0 0 0" rpy="${pi/2} 0 0" />
            <geometry>
              <cylinder radius="${wheeldiam/2}" length="0.02"/>
            </geometry>
            <material name="black"/>
          </visual>
    </link>

    <joint name="LFW_joint" type="continuous">
        <parent link="base_link" />
        <child link="LFW" />
        <origin rpy="0 0 0" xyz="0.25 ${width/2+0.01} -0.07" />
    </joint>



    <link name="steer">
        <visual>
            <origin xyz="0 0 0" rpy="0 0 0" />
            <geometry>
              <cylinder radius="${wheeldiam/2}" length="0.02"/>
            </geometry>
            <material name="black"/>
          </visual>
    </link>

    <joint name="steer_joint" type="continuous">
        <parent link="base_link" />
        <child link="steer" />
        <origin rpy="0 -${pi/4} 0" xyz="0.25 0 0.1" />
    </joint>

    <link name="base_footprint">
    </link>
  
    <joint name="linktofoot" type="fixed">
        <parent link="base_footprint" />
        <child link="base_link" />
        <origin xyz="0 0 ${(+0.07+wheeldiam/2)}" />
    </joint>

</robot>
